Untitled • isoprocessor
…
## Info: loaded data for 47 data files from R Data Storage - checking loa...

## Info: finished reading 1 files in 0.90 secs

## Info: encountered 2 problems in total

## # A tibble: 2 x 4
##   file_id         type  func            details                            
##   <chr>           <chr> <chr>           <chr>                              
## 1 BF2133__A5 con… error extract_dxf_ra… cannot identify measured masses - …
## 2 BF2110__A5_0_5… error extract_dxf_ra… cannot identify measured masses - …

## Info: aggregating raw data from 47 data file(s)

## # A tibble: 701,681 x 6
##    file_id                    tp time.s v44.mV v45.mV v46.mV
##    <chr>                   <int>  <dbl>  <dbl>  <dbl>  <dbl>
##  1 BF2026__CO2 zero_6V.dxf     1   1.88   20.4   25.3   31.1
##  2 BF2026__CO2 zero_6V.dxf     2   2.09   20.1   24.9   30.7
##  3 BF2026__CO2 zero_6V.dxf     3   2.30   19.8   24.5   30.1
##  4 BF2026__CO2 zero_6V.dxf     4   2.51   19.5   24.2   29.8
##  5 BF2026__CO2 zero_6V.dxf     5   2.72   19.2   23.9   29.4
##  6 BF2026__CO2 zero_6V.dxf     6   2.93   18.9   23.6   29.1
##  7 BF2026__CO2 zero_6V.dxf     7   3.13   18.7   23.2   28.6
##  8 BF2026__CO2 zero_6V.dxf     8   3.34   18.4   22.9   28.2
##  9 BF2026__CO2 zero_6V.dxf     9   3.55   18.2   22.6   28.0
## 10 BF2026__CO2 zero_6V.dxf    10   3.76   17.9   22.4   27.7
## # … with 701,671 more rows
…
