GC-IRMS data processing example • isoprocessor
…
# read files
iso_files_raw <- 
  # path to data files
  data_path %>% 
  # read data files in parallel for fast read
  iso_read_continuous_flow(parallel = TRUE) %>%
  # filter out files with read errors (e.g. from aborted analysis)
  iso_filter_files_with_problems()
#> Info: preparing to read 1 data files (all will be cached), setting up 1 par...
#> Info (process 1): reading file 'gc_irms_example_carbon.cf.rds' with '.cf.rd...
#> Info (process 1): loaded 47 data files from R Data Storage
#> Info (process 1): running compatibility checks for outdated files (47/47) c...
#> Info: finished reading 1 files in 6.29 secs
#> Info: encountered 49 problems in total
#> # A tibble: 49 x 4
#>    file_id                  type   func     details                             
#>    <chr>                    <chr>  <chr>    <chr>                               
#>  1 BF2026__CO2 zero_6V.dxf  warni… read_is… cache file created by an outdated v…
#>  2 BF2030__Linearity CO2_.… warni… read_is… cache file created by an outdated v…
#>  3 BF2034__A5_0_5ul.dxf     warni… read_is… cache file created by an outdated v…
#>  4 BF2041__A5_3ul.dxf       warni… read_is… cache file created by an outdated v…
#>  5 BF2047__A5_3ul.dxf       warni… read_is… cache file created by an outdated v…
#>  6 BF2061__OG271_CZO-CTNA_… warni… read_is… cache file created by an outdated v…
#>  7 BF2093__A5_0_5ul.dxf     warni… read_is… cache file created by an outdated v…
#>  8 BF2099__A5_0_5ul.dxf     warni… read_is… cache file created by an outdated v…
#>  9 BF2106__OG281_CZO-Niwot… warni… read_is… cache file created by an outdated v…
#> 10 BF2114__A5_1_5ul.dxf     warni… read_is… cache file created by an outdated v…
#> # … with 39 more rows
…
