How does Isodat calculate R? • isoprocessor
…
Data Table

iso_files %>% iso_get_vendor_data_table(with_explicit_units = TRUE)
#> Info: aggregating vendor data table with explicit units from 4 data file(s)
#> # A tibble: 32 × 9
#>    file_id cycle `d 45N2O/44N2O` `d 46N2O/44N2O` `d 18O/16O` `d 15N/14N`
#>    <chr>   <int>           <dbl>           <dbl>       <dbl>       <dbl>
#>  1 SP0.did     1          0.0696           -6.42       -6.47      0.246 
#>  2 SP0.did     2         -0.0252           -6.99       -7.04      0.161 
#>  3 SP0.did     3         -0.152            -6.43       -6.48      0.0133
#>  4 SP0.did     4         -0.0402           -6.79       -6.84      0.140 
#>  5 SP0.did     5          0.0236           -6.38       -6.43      0.196 
#>  6 SP0.did     6         -0.0685           -6.26       -6.30      0.0962
#>  7 SP0.did     7         -0.112            -6.41       -6.46      0.0541
#>  8 SP0.did     8         -0.0870           -6.60       -6.65      0.0859
#>  9 SP1.did     1          0.0213           -5.82       -5.87      0.179 
#> 10 SP1.did     2         -0.0117           -6.28       -6.33      0.157 
#> # … with 22 more rows, and 3 more variables: d 17O/16O <dbl>,
#> #   AT% 15N/14N <dbl>, AT% 18O/16O <dbl>

Calculations

# calculate ratios
ratios <- 
  iso_files %>% 
  iso_calculate_ratios(c("45/44", "46/44")) %>% 
  iso_get_raw_data() %>% 
  select(file_id, type, cycle, starts_with("r"))
#> Info: calculating ratio(s) in 4 data file(s): r45/44, r46/44
#> Info: aggregating raw data from 4 data file(s)
ratios
#> # A tibble: 68 × 5
#>    file_id type     cycle `r45/44` `r46/44`
#>    <chr>   <chr>    <int>    <dbl>    <dbl>
#>  1 SP0.did standard     0    0.809    0.596
#>  2 SP0.did standard     1    0.809    0.597
#>  3 SP0.did standard     2    0.810    0.597
#>  4 SP0.did standard     3    0.810    0.597
#>  5 SP0.did standard     4    0.810    0.597
#>  6 SP0.did standard     5    0.811    0.597
#>  7 SP0.did standard     6    0.811    0.597
#>  8 SP0.did standard     7    0.811    0.597
#>  9 SP0.did standard     8    0.811    0.597
#> 10 SP0.did sample       1    0.809    0.593
#> # … with 58 more rows
# get bracketing standards
pre_standard <- ratios %>% filter(type == "standard", cycle < max(cycle)) %>% mutate(cycle = cycle + 1)
post_standard <- ratios %>% filter(type == "standard", cycle > min(cycle))
standards <- left_join(pre_standard, post_standard, by = c("file_id", "cycle", "type"))

# calculate deltas based on average of bracketing standards
deltas <- ratios %>% filter(type == "sample") %>% 
  left_join(standards, by = c("file_id", "cycle")) %>% 
  mutate(
    `d45/44` = (2 * `r45/44` / (`r45/44.x` + `r45/44.y`) - 1) * 1e3,
    `d46/44` = (2 * `r46/44` / (`r46/44.x` + `r46/44.y`) - 1) * 1e3
  ) %>% 
  select(file_id, cycle, starts_with("d"))
deltas
#> # A tibble: 32 × 4
#>    file_id cycle `d45/44` `d46/44`
#>    <chr>   <dbl>    <dbl>    <dbl>
#>  1 SP0.did     1   0.0696    -6.42
#>  2 SP0.did     2  -0.0252    -6.99
#>  3 SP0.did     3  -0.152     -6.43
#>  4 SP0.did     4  -0.0402    -6.79
#>  5 SP0.did     5   0.0236    -6.38
#>  6 SP0.did     6  -0.0685    -6.26
#>  7 SP0.did     7  -0.112     -6.41
#>  8 SP0.did     8  -0.0870    -6.60
#>  9 SP1.did     1   0.0213    -5.82
#> 10 SP1.did     2  -0.0117    -6.28
#> # … with 22 more rows
…
